<?xml version="1.0" encoding="utf-8"?>
<COLLADA xmlns="http://www.collada.org/2005/11/COLLADASchema" version="1.4.1">
  <asset>
    <contributor>
      <author>Blender User</author>
      <authoring_tool>Blender 2.61.0 r42615</authoring_tool>
    </contributor>
    <created>2012-02-08T15:34:34</created>
    <modified>2012-02-08T15:34:34</modified>
    <unit name="meter" meter="1"/>
    <up_axis>Z_UP</up_axis>
  </asset>
  <library_cameras>
    <camera id="Camera-camera" name="Camera">
      <optics>
        <technique_common>
          <perspective>
            <xfov sid="xfov">49.13434</xfov>
            <aspect_ratio>1.777778</aspect_ratio>
            <znear sid="znear">0.1</znear>
            <zfar sid="zfar">100</zfar>
          </perspective>
        </technique_common>
      </optics>
    </camera>
  </library_cameras>
  <library_lights>
    <light id="Lamp-light" name="Lamp">
      <technique_common>
        <point>
          <color sid="color">1 1 1</color>
          <constant_attenuation>1</constant_attenuation>
          <linear_attenuation>0</linear_attenuation>
          <quadratic_attenuation>0.00111109</quadratic_attenuation>
        </point>
      </technique_common>
      <extra>
        <technique profile="blender">
          <adapt_thresh>0.000999987</adapt_thresh>
          <area_shape>0</area_shape>
          <area_size>1</area_size>
          <area_sizey>1</area_sizey>
          <area_sizez>1</area_sizez>
          <atm_distance_factor>1</atm_distance_factor>
          <atm_extinction_factor>1</atm_extinction_factor>
          <atm_turbidity>2</atm_turbidity>
          <att1>0</att1>
          <att2>1</att2>
          <backscattered_light>1</backscattered_light>
          <bias>1</bias>
          <blue>1</blue>
          <buffers>1</buffers>
          <bufflag>0</bufflag>
          <bufsize>2880</bufsize>
          <buftype>2</buftype>
          <clipend>30.002</clipend>
          <clipsta>1.000799</clipsta>
          <compressthresh>0.04999995</compressthresh>
          <dist sid="blender_dist">29.99998</dist>
          <energy sid="blender_energy">1</energy>
          <falloff_type>2</falloff_type>
          <filtertype>0</filtertype>
          <flag>0</flag>
          <gamma sid="blender_gamma">1</gamma>
          <green>1</green>
          <halo_intensity sid="blnder_halo_intensity">1</halo_intensity>
          <horizon_brightness>1</horizon_brightness>
          <mode>8192</mode>
          <ray_samp>1</ray_samp>
          <ray_samp_method>1</ray_samp_method>
          <ray_samp_type>0</ray_samp_type>
          <ray_sampy>1</ray_sampy>
          <ray_sampz>1</ray_sampz>
          <red>1</red>
          <samp>3</samp>
          <shadhalostep>0</shadhalostep>
          <shadow_b sid="blender_shadow_b">0</shadow_b>
          <shadow_g sid="blender_shadow_g">0</shadow_g>
          <shadow_r sid="blender_shadow_r">0</shadow_r>
          <shadspotsize>45</shadspotsize>
          <sky_colorspace>0</sky_colorspace>
          <sky_exposure>1</sky_exposure>
          <skyblendfac>1</skyblendfac>
          <skyblendtype>1</skyblendtype>
          <soft>3</soft>
          <spotblend>0.15</spotblend>
          <spotsize>75</spotsize>
          <spread>1</spread>
          <sun_brightness>1</sun_brightness>
          <sun_effect_type>0</sun_effect_type>
          <sun_intensity>1</sun_intensity>
          <sun_size>1</sun_size>
          <type>0</type>
        </technique>
      </extra>
    </light>
  </library_lights>
  <library_geometries>
    <geometry id="Sphere-mesh">
      <mesh>
        <source id="Sphere-mesh-positions">
          <float_array id="Sphere-mesh-positions-array" count="1446">0.1913415 0.03806018 -0.9807854 0.3753301 0.07465779 -0.9238796 0.5448951 0.1083863 -0.8314697 0.6935199 0.1379497 -0.7071068 0.8154932 0.1622117 -0.5555701 0.9061275 0.1802399 -0.3826833 0.9619398 0.1913417 -0.1950901 0.9807853 0.1950903 0 0.9619397 0.1913417 0.1950903 0.9061274 0.1802399 0.3826834 0.8154932 0.1622117 0.5555702 0.6935199 0.1379497 0.7071068 0.5448951 0.1083863 0.8314696 0.3753303 0.07465779 0.9238795 0.1913417 0.03806018 0.9807853 0.1802399 0.07465779 0.9807853 0.3535534 0.1464466 0.9238795 0.51328 0.2126075 0.8314696 0.6532815 0.2705981 0.7071068 0.7681778 0.3181896 0.5555702 0.8535533 0.3535534 0.3826834 0.9061273 0.3753303 0.1950903 0.9238795 0.3826834 0 0.9061274 0.3753303 -0.1950901 0.8535534 0.3535534 -0.3826833 0.7681778 0.3181896 -0.5555701 0.6532815 0.2705981 -0.7071068 0.5132799 0.2126075 -0.8314697 0.3535532 0.1464465 -0.9238796 0.1802397 0.07465773 -0.9807854 0.1622114 0.1083862 -0.9807854 0.3181895 0.2126074 -0.9238796 0.4619397 0.3086583 -0.8314697 0.5879378 0.3928475 -0.7071068 0.6913417 0.4619398 -0.5555701 0.7681777 0.51328 -0.3826833 0.8154931 0.5448951 -0.1950901 0.8314695 0.5555702 0 0.8154931 0.5448951 0.1950903 0.7681776 0.5132799 0.3826834 0.6913417 0.4619398 0.5555702 0.5879378 0.3928475 0.7071068 0.4619398 0.3086583 0.8314696 0.3181896 0.2126075 0.9238795 0.1622116 0.1083863 0.9807853 0.1379497 0.1379497 0.9807853 0.270598 0.270598 0.9238795 0.3928474 0.3928475 0.8314696 0.5 0.5 0.7071068 0.5879378 0.5879378 0.5555702 0.6532813 0.6532814 0.3826834 0.6935198 0.6935198 0.1950903 0.7071067 0.7071067 0 0.6935198 0.6935198 -0.1950901 0.6532814 0.6532815 -0.3826833 0.5879378 0.5879378 -0.5555701 0.5 0.5 -0.7071068 0.3928474 0.3928474 -0.8314697 0.2705979 0.2705979 -0.9238796 0.1379495 0.1379495 -0.9807854 0.1083862 0.1622114 -0.9807854 0.2126074 0.3181895 -0.9238796 0.3086582 0.4619397 -0.8314697 0.3928474 0.5879378 -0.7071068 0.4619397 0.6913416 -0.5555701 0.5132799 0.7681777 -0.3826833 0.544895 0.8154931 -0.1950901 0.5555701 0.8314695 0 0.5448949 0.8154931 0.1950903 0.5132798 0.7681776 0.3826834 0.4619397 0.6913416 0.5555702 0.3928474 0.5879378 0.7071068 0.3086583 0.4619398 0.8314696 0.2126075 0.3181896 0.9238795 0.1083863 0.1622116 0.9807853 0.07465779 0.1802399 0.9807853 0.1464465 0.3535534 0.9238795 0.2126075 0.5132799 0.8314696 0.270598 0.6532815 0.7071068 0.3181896 0.7681776 0.5555702 0.3535532 0.8535532 0.3826834 0.3753301 0.9061273 0.1950903 0.3826833 0.9238793 0 0.3753302 0.9061273 -0.1950901 0.3535532 0.8535533 -0.3826833 0.3181896 0.7681776 -0.5555701 0.270598 0.6532815 -0.7071068 0.2126074 0.5132799 -0.8314697 0.1464465 0.3535532 -0.9238796 0.07465773 0.1802397 -0.9807854 -1.24694e-7 -3.01038e-7 -1 0.03806012 0.1913414 -0.9807854 0.07465773 0.37533 -0.9238796 0.1083863 0.544895 -0.8314697 0.1379496 0.6935199 -0.7071068 0.1622116 0.815493 -0.5555701 0.1802398 0.9061273 -0.3826833 0.1913416 0.9619396 -0.1950901 0.1950902 0.980785 0 0.1913415 0.9619395 0.1950903 0.1802398 0.9061272 0.3826834 0.1622116 0.815493 0.5555702 0.1379496 0.6935199 0.7071068 0.1083863 0.5448951 0.8314696 0.07465779 0.3753302 0.9238795 0.03806018 0.1913416 0.9807853 0 0.1950902 0.9807853 0 0.3826833 0.9238795 0 0.5555701 0.8314696 0 0.7071067 0.7071068 0 0.8314694 0.5555702 0 0.9238793 0.3826834 0 0.980785 0.1950903 0 0.9999997 0 0 0.9807851 -0.1950901 0 0.9238793 -0.3826833 0 0.8314694 -0.5555701 0 0.7071067 -0.7071068 0 0.5555701 -0.8314697 0 0.3826832 -0.9238796 0 0.19509 -0.9807854 -0.03806018 0.1913414 -0.9807854 -0.07465779 0.37533 -0.9238796 -0.1083863 0.5448949 -0.8314697 -0.1379497 0.6935198 -0.7071068 -0.1622116 0.8154929 -0.5555701 -0.18024 0.9061272 -0.3826833 -0.1913417 0.9619395 -0.1950901 -0.1950902 0.980785 0 -0.1913417 0.9619394 0.1950903 -0.18024 0.9061272 0.3826834 -0.1622116 0.8154929 0.5555702 -0.1379497 0.6935198 0.7071068 -0.1083863 0.544895 0.8314696 -0.07465779 0.3753302 0.9238795 -0.03806024 0.1913416 0.9807853 -0.07465779 0.1802399 0.9807853 -0.1464466 0.3535533 0.9238795 -0.2126075 0.5132799 0.8314696 -0.2705981 0.6532814 0.7071068 -0.3181896 0.7681775 0.5555702 -0.3535534 0.8535531 0.3826834 -0.3753302 0.906127 0.1950903 -0.3826833 0.9238792 0 -0.3753302 0.9061272 -0.1950901 -0.3535534 0.8535531 -0.3826833 -0.3181896 0.7681775 -0.5555701 -0.2705981 0.6532814 -0.7071068 -0.2126075 0.5132798 -0.8314697 -0.1464465 0.3535531 -0.9238796 -0.07465773 0.1802397 -0.9807854 -0.1083862 0.1622114 -0.9807854 -0.2126074 0.3181894 -0.9238796 -0.3086582 0.4619396 -0.8314697 -0.3928475 0.5879377 -0.7071068 -0.4619396 0.6913415 -0.5555701 -0.5132799 0.7681775 -0.3826833 -0.544895 0.8154929 -0.1950901 -0.5555701 0.8314693 0 -0.544895 0.8154928 0.1950903 -0.5132799 0.7681774 0.3826834 -0.4619396 0.6913415 0.5555702 -0.3928475 0.5879377 0.7071068 -0.3086583 0.4619396 0.8314696 -0.2126075 0.3181895 0.9238795 -0.1083863 0.1622116 0.9807853 -0.1379497 0.1379496 0.9807853 -0.270598 0.2705979 0.9238795 -0.3928474 0.3928473 0.8314696 -0.5 0.4999999 0.7071068 -0.5879376 0.5879375 0.5555702 -0.6532813 0.6532811 0.3826834 -0.6935197 0.6935195 0.1950903 -0.7071065 0.7071065 0 -0.6935197 0.6935197 -0.1950901 -0.6532813 0.6532812 -0.3826833 -0.5879376 0.5879375 -0.5555701 -0.5 0.4999999 -0.7071068 -0.3928474 0.3928473 -0.8314697 -0.2705979 0.2705978 -0.9238796 -0.1379495 0.1379495 -0.9807854 -0.1622114 0.1083862 -0.9807854 -0.3181894 0.2126073 -0.9238796 -0.4619396 0.3086581 -0.8314697 -0.5879377 0.3928474 -0.7071068 -0.6913415 0.4619395 -0.5555701 -0.7681775 0.5132797 -0.3826833 -0.8154929 0.5448949 -0.1950901 -0.8314693 0.55557 0 -0.8154929 0.5448948 0.1950903 -0.7681775 0.5132796 0.3826834 -0.6913415 0.4619395 0.5555702 -0.5879377 0.3928474 0.7071068 -0.4619396 0.3086581 0.8314696 -0.3181896 0.2126074 0.9238795 -0.1622116 0.1083863 0.9807853 -0.1802399 0.07465779 0.9807853 -0.3535532 0.1464465 0.9238795 -0.5132798 0.2126073 0.8314696 -0.6532813 0.2705979 0.7071068 -0.7681775 0.3181895 0.5555702 -0.853553 0.3535531 0.3826834 -0.9061271 0.37533 0.1950903 -0.9238792 0.3826832 0 -0.9061271 0.3753301 -0.1950901 -0.8535531 0.3535531 -0.3826833 -0.7681775 0.3181895 -0.5555701 -0.6532813 0.2705979 -0.7071068 -0.5132797 0.2126073 -0.8314697 -0.3535531 0.1464465 -0.9238796 -0.1802397 0.07465767 -0.9807854 -0.1913414 0.03806012 -0.9807854 -0.37533 0.07465773 -0.9238796 -0.5448948 0.1083862 -0.8314697 -0.6935197 0.1379496 -0.7071068 -0.8154928 0.1622115 -0.5555701 -0.906127 0.1802397 -0.3826833 -0.9619393 0.1913416 -0.1950901 -0.9807848 0.1950901 0 -0.9619393 0.1913415 0.1950903 -0.906127 0.1802397 0.3826834 -0.8154928 0.1622115 0.5555702 -0.6935197 0.1379496 0.7071068 -0.5448949 0.1083862 0.8314696 -0.3753301 0.07465773 0.9238795 -0.1913416 0.03806018 0.9807853 -0.1950902 0 0.9807853 -0.3826832 0 0.9238795 -0.55557 0 0.8314696 -0.7071065 0 0.7071068 -0.8314692 0 0.5555702 -0.923879 -1.44e-7 0.3826834 -0.9807848 -1.60027e-7 0.1950903 -0.9999995 0 0 -0.9807848 0 -0.1950901 -0.9238791 0 -0.3826833 -0.8314692 0 -0.5555701 -0.7071065 0 -0.7071068 -0.5555699 0 -0.8314697 -0.3826831 0 -0.9238796 -0.19509 0 -0.9807854 -0.1913414 -0.03806018 -0.9807854 -0.3753299 -0.07465773 -0.9238796 -0.5448948 -0.1083863 -0.8314697 -0.6935197 -0.1379497 -0.7071068 -0.8154928 -0.1622117 -0.5555701 -0.906127 -0.1802399 -0.3826833 -0.9619393 -0.1913416 -0.1950901 -0.9807848 -0.1950903 0 -0.9619392 -0.1913418 0.1950903 -0.9061269 -0.18024 0.3826834 -0.8154928 -0.1622117 0.5555702 -0.6935197 -0.1379497 0.7071068 -0.5448948 -0.1083864 0.8314696 -0.3753301 -0.07465779 0.9238795 -0.1913416 -0.03806018 0.9807853 -0.1802399 -0.07465779 0.9807853 -0.3535532 -0.1464465 0.9238795 -0.5132797 -0.2126075 0.8314696 -0.6532812 -0.270598 0.7071068 -0.7681773 -0.3181896 0.5555702 -0.8535528 -0.3535533 0.3826834 -0.9061269 -0.3753302 0.1950903 -0.923879 -0.3826833 0 -0.9061269 -0.3753301 -0.1950901 -0.8535529 -0.3535533 -0.3826833 -0.7681773 -0.3181896 -0.5555701 -0.6532812 -0.270598 -0.7071068 -0.5132796 -0.2126074 -0.8314697 -0.3535531 -0.1464465 -0.9238796 -0.1802396 -0.07465773 -0.9807854 -0.1622114 -0.1083862 -0.9807854 -0.3181893 -0.2126073 -0.9238796 -0.4619394 -0.3086581 -0.8314697 -0.5879375 -0.3928474 -0.7071068 -0.6913413 -0.4619396 -0.5555701 -0.7681772 -0.5132798 -0.3826833 -0.8154926 -0.5448948 -0.1950901 -0.8314691 -0.55557 0 -0.8154926 -0.5448949 0.1950903 -0.7681772 -0.5132798 0.3826834 -0.6913413 -0.4619396 0.5555702 -0.5879375 -0.3928474 0.7071068 -0.4619395 -0.3086582 0.8314696 -0.3181895 -0.2126075 0.9238795 -0.1622115 -0.1083863 0.9807853 -0.1379496 -0.1379496 0.9807853 -0.2705979 -0.2705979 0.9238795 -0.3928472 -0.3928473 0.8314696 -0.4999997 -0.4999998 0.7071068 -0.5879374 -0.5879375 0.5555702 -0.653281 -0.6532812 0.3826834 -0.6935194 -0.6935197 0.1950903 -0.7071063 -0.7071065 0 -0.6935194 -0.6935195 -0.1950901 -0.653281 -0.6532812 -0.3826833 -0.5879374 -0.5879375 -0.5555701 -0.4999997 -0.4999998 -0.7071068 -0.3928471 -0.3928472 -0.8314697 -0.2705978 -0.2705978 -0.9238796 -0.1379494 -0.1379495 -0.9807854 -0.1083862 -0.1622114 -0.9807854 -0.2126073 -0.3181893 -0.9238796 -0.308658 -0.4619395 -0.8314697 -0.3928472 -0.5879375 -0.7071068 -0.4619393 -0.6913414 -0.5555701 -0.5132795 -0.7681774 -0.3826833 -0.5448946 -0.8154926 -0.1950901 -0.5555698 -0.8314692 0 -0.5448946 -0.8154928 0.1950903 -0.5132795 -0.7681774 0.3826834 -0.4619393 -0.6913414 0.5555702 -0.3928472 -0.5879375 0.7071068 -0.308658 -0.4619395 0.8314696 -0.2126073 -0.3181895 0.9238795 -0.1083863 -0.1622116 0.9807853 -0.07465773 -0.1802399 0.9807853 -0.1464465 -0.3535532 0.9238795 -0.2126073 -0.5132797 0.8314696 -0.2705978 -0.6532812 0.7071068 -0.3181893 -0.7681773 0.5555702 -0.353553 -0.8535529 0.3826834 -0.3753298 -0.9061269 0.1950903 -0.382683 -0.923879 0 -0.3753299 -0.9061268 -0.1950901 -0.353553 -0.8535529 -0.3826833 -0.3181893 -0.7681773 -0.5555701 -0.2705978 -0.6532812 -0.7071068 -0.2126073 -0.5132796 -0.8314697 -0.1464464 -0.353553 -0.9238796 -0.07465767 -0.1802396 -0.9807854 -0.03806012 -0.1913414 -0.9807854 -0.07465767 -0.3753299 -0.9238796 -0.1083862 -0.5448947 -0.8314697 -0.1379495 -0.6935195 -0.7071068 -0.1622114 -0.8154926 -0.5555701 -0.1802396 -0.9061269 -0.3826833 -0.1913415 -0.961939 -0.1950901 -0.19509 -0.9807846 0 -0.1913414 -0.9619392 0.1950903 -0.1802396 -0.9061269 0.3826834 -0.1622114 -0.8154926 0.5555702 -0.1379495 -0.6935195 0.7071068 -0.1083862 -0.5448948 0.8314696 -0.07465773 -0.37533 0.9238795 -0.03806012 -0.1913416 0.9807853 0 -0.1950902 0.9807853 0 -0.3826832 0.9238795 0 -0.5555698 0.8314696 0 -0.7071064 0.7071068 0 -0.8314689 0.5555702 2.05446e-7 -0.9238789 0.3826834 2.42061e-7 -0.9807846 0.1950903 1.49771e-7 -0.9999992 0 0 -0.9807845 -0.1950901 2.05446e-7 -0.9238789 -0.3826833 0 -0.8314689 -0.5555701 0 -0.7071064 -0.7071068 0 -0.5555698 -0.8314697 0 -0.382683 -0.9238796 0 -0.1950899 -0.9807854 0.03806018 -0.1913414 -0.9807854 0.07465779 -0.3753299 -0.9238796 0.1083863 -0.5448946 -0.8314697 0.1379497 -0.6935195 -0.7071068 0.1622116 -0.8154925 -0.5555701 0.18024 -0.9061267 -0.3826833 0.1913416 -0.9619389 -0.1950901 0.1950903 -0.9807845 0 0.1913418 -0.961939 0.1950903 0.18024 -0.9061267 0.3826834 0.1622116 -0.8154925 0.5555702 0.1379497 -0.6935195 0.7071068 0.1083863 -0.5448947 0.8314696 0.07465779 -0.37533 0.9238795 0.03806024 -0.1913416 0.9807853 0.07465779 -0.1802398 0.9807853 0.1464465 -0.3535531 0.9238795 0.2126074 -0.5132796 0.8314696 0.2705979 -0.653281 0.7071068 0.3181895 -0.768177 0.5555702 0.3535533 -0.8535526 0.3826834 0.3753302 -0.9061267 0.1950903 0.3826833 -0.9238787 0 0.37533 -0.9061266 -0.1950901 0.3535533 -0.8535526 -0.3826833 0.3181895 -0.768177 -0.5555701 0.2705979 -0.653281 -0.7071068 0.2126074 -0.5132795 -0.8314697 0.1464465 -0.3535529 -0.9238796 0.07465773 -0.1802396 -0.9807854 0.1083862 -0.1622114 -0.9807854 0.2126073 -0.3181892 -0.9238796 0.3086581 -0.4619393 -0.8314697 0.3928472 -0.5879374 -0.7071068 0.4619395 -0.6913411 -0.5555701 0.5132797 -0.768177 -0.3826833 0.5448947 -0.8154923 -0.1950901 0.5555699 -0.8314688 0 0.5448949 -0.8154924 0.1950903 0.5132797 -0.768177 0.3826834 0.4619395 -0.6913411 0.5555702 0.3928472 -0.5879374 0.7071068 0.3086581 -0.4619393 0.8314696 0.2126074 -0.3181894 0.9238795 0.1083863 -0.1622115 0.9807853 0.1379496 -0.1379495 0.9807853 0.2705979 -0.2705978 0.9238795 0.3928472 -0.3928471 0.8314696 0.4999997 -0.4999996 0.7071068 0.5879374 -0.5879372 0.5555702 0.6532811 -0.6532808 0.3826834 0.6935196 -0.6935192 0.1950903 0.7071063 -0.7071061 0 0.6935194 -0.6935192 -0.1950901 0.6532811 -0.6532808 -0.3826833 0.5879374 -0.5879372 -0.5555701 0.4999997 -0.4999996 -0.7071068 0.3928472 -0.3928471 -0.8314697 0.2705978 -0.2705976 -0.9238796 0.1379494 -0.1379494 -0.9807854 0.1622114 -0.1083861 -0.9807854 0.3181893 -0.2126072 -0.9238796 0.4619394 -0.3086579 -0.8314697 0.5879374 -0.3928471 -0.7071068 0.6913412 -0.4619392 -0.5555701 0.7681772 -0.5132793 -0.3826833 0.8154925 -0.5448945 -0.1950901 0.831469 -0.5555696 0 0.8154927 -0.5448944 0.1950903 0.7681772 -0.5132793 0.3826834 0.6913412 -0.4619392 0.5555702 0.5879374 -0.3928471 0.7071068 0.4619395 -0.308658 0.8314696 0.3181894 -0.2126073 0.9238795 0.1622115 -0.1083862 0.9807853 0.1802398 -0.07465773 0.9807853 0.3535531 -0.1464464 0.9238795 0.5132796 -0.2126072 0.8314696 0.653281 -0.2705978 0.7071068 0.7681771 -0.3181892 0.5555702 0.8535527 -0.3535528 0.3826834 0.9061268 -0.3753296 0.1950903 0.9238788 -0.3826829 0 0.9061266 -0.3753297 -0.1950901 0.8535527 -0.3535528 -0.3826833 0.7681771 -0.3181892 -0.5555701 0.653281 -0.2705978 -0.7071068 0.5132795 -0.2126072 -0.8314697 0.3535529 -0.1464463 -0.9238796 0.1802396 -0.07465761 -0.9807854 0.1913414 -0.03806012 -0.9807854 0.3753297 -0.07465761 -0.9238796 0.5448946 -0.1083861 -0.8314697 0.6935194 -0.1379495 -0.7071068 0.8154924 -0.1622113 -0.5555701 0.9061266 -0.1802395 -0.3826833 0.9619388 -0.1913414 -0.1950901 0.9807844 -0.1950899 0 0.961939 -0.1913412 0.1950903 0.9061266 -0.1802395 0.3826834 0.8154924 -0.1622113 0.5555702 0.6935194 -0.1379495 0.7071068 0.5448946 -0.1083862 0.8314696 0.37533 -0.07465773 0.9238795 0.1913415 -0.03806012 0.9807853 0 0 1 0.1950901 0 0.9807853 0.3826831 0 0.9238795 0.5555697 0 0.8314696 0.7071062 0 0.7071068 0.8314688 1.66685e-7 0.5555702 0.9238786 2.49608e-7 0.3826834 0.9807844 3.53325e-7 0.1950903 0.9999991 2.31805e-7 0 0.9807842 1.72291e-7 -0.1950901 0.9238786 2.49608e-7 -0.3826833 0.8314688 1.66685e-7 -0.5555701 0.7071062 0 -0.7071068 0.5555697 0 -0.8314697 0.3826829 0 -0.9238796 0.1950899 0 -0.9807854</float_array>
          <technique_common>
            <accessor source="#Sphere-mesh-positions-array" count="482" stride="3">
              <param name="X" type="float"/>
              <param name="Y" type="float"/>
              <param name="Z" type="float"/>
            </accessor>
          </technique_common>
        </source>
        <source id="Sphere-mesh-normals">
          <float_array id="Sphere-mesh-normals-array" count="1536">0.0980122 0.009653031 -0.9951385 0.2901663 0.02857756 -0.9565495 0.4708899 0.04637628 -0.8809723 0.6331588 0.06235802 -0.771506 0.7707808 0.07591176 -0.6325618 0.8786135 0.08653134 -0.4696282 0.9527187 0.09382969 -0.2890036 0.9904388 0.09754478 -0.09754991 0.9904388 0.09754526 0.09754967 0.9527186 0.09383028 0.289004 0.8786135 0.08653151 0.4696282 0.7707805 0.07591176 0.6325621 0.6331588 0.06235802 0.7715058 0.4708899 0.04637634 0.8809722 0.2901663 0.02857756 0.9565494 0.0980128 0.009652972 0.9951384 0.09424614 0.02858924 0.9951384 0.2790151 0.08463835 0.9565495 0.4527934 0.1373534 0.8809723 0.6088268 0.1846855 0.7715058 0.7411591 0.2248282 0.6325626 0.8448485 0.2562822 0.4696281 0.9161056 0.2778978 0.2890039 0.9523764 0.2889004 0.09754985 0.9523764 0.2889004 -0.09754955 0.9161057 0.2778978 -0.2890038 0.8448483 0.2562821 -0.4696282 0.7411593 0.2248283 -0.6325623 0.6088266 0.1846855 -0.771506 0.4527934 0.1373534 -0.8809723 0.279015 0.08463829 -0.9565495 0.09424555 0.02858906 -0.9951384 0.08685719 0.04642611 -0.9951384 0.2571417 0.1374451 -0.9565495 0.4172968 0.2230498 -0.8809723 0.5610978 0.2999131 -0.7715061 0.6830564 0.3651013 -0.6325622 0.7786167 0.4161794 -0.4696281 0.8442878 0.4512814 -0.2890038 0.877715 0.4691486 -0.09754943 0.877715 0.4691486 0.09754967 0.8442877 0.4512813 0.289004 0.7786169 0.4161795 0.469628 0.6830562 0.3651012 0.6325626 0.5610979 0.2999131 0.7715058 0.4172967 0.2230498 0.8809723 0.2571418 0.1374452 0.9565495 0.08685773 0.04642641 0.9951383 0.0761314 0.06247949 0.9951384 0.2253867 0.1849702 0.9565495 0.3657636 0.3001745 0.8809723 0.4918063 0.4036152 0.7715058 0.5987036 0.4913436 0.6325626 0.6824634 0.5600834 0.4696279 0.7400243 0.6073226 0.289004 0.7693236 0.6313678 0.09754967 0.7693237 0.6313678 -0.09754949 0.7400243 0.6073226 -0.2890037 0.6824632 0.5600833 -0.4696282 0.5987038 0.4913437 -0.6325623 0.4918062 0.4036151 -0.7715061 0.3657637 0.3001747 -0.8809723 0.2253866 0.18497 -0.9565495 0.07613098 0.06247901 -0.9951384 0.06247901 0.07613092 -0.9951384 0.18497 0.2253866 -0.9565495 0.3001745 0.3657639 -0.8809723 0.4036149 0.4918063 -0.771506 0.4913436 0.5987041 -0.6325622 0.560083 0.6824635 -0.4696282 0.6073223 0.7400246 -0.2890037 0.6313675 0.7693238 -0.09754961 0.6313676 0.7693238 0.09754979 0.6073222 0.7400246 0.289004 0.560083 0.6824636 0.4696279 0.4913434 0.5987039 0.6325625 0.403615 0.4918064 0.7715058 0.3001745 0.3657637 0.8809723 0.18497 0.2253867 0.9565494 0.06247943 0.07613146 0.9951384 0.04642641 0.08685773 0.9951384 0.1374452 0.2571419 0.9565495 0.2230497 0.4172969 0.8809723 0.2999129 0.5610978 0.7715058 0.3651011 0.6830565 0.6325623 0.4161792 0.778617 0.4696281 0.4512811 0.8442879 0.289004 0.4691482 0.8777152 0.09754967 0.4691483 0.8777153 -0.09754955 0.4512811 0.844288 -0.2890037 0.4161791 0.7786169 -0.4696282 0.3651012 0.6830567 -0.6325621 0.2999129 0.5610977 -0.7715061 0.2230497 0.417297 -0.8809722 0.137445 0.2571418 -0.9565495 0.04642611 0.08685714 -0.9951384 0.02858901 0.09424555 -0.9951384 0.08463823 0.2790151 -0.9565495 0.1373533 0.4527935 -0.8809722 0.1846855 0.6088264 -0.7715061 0.2248282 0.7411597 -0.6325619 0.2562817 0.8448485 -0.4696283 0.2778974 0.9161058 -0.2890037 0.2889 0.9523764 -0.09754943 0.2888999 0.9523764 0.09754961 0.2778973 0.9161058 0.2890039 0.2562817 0.8448486 0.4696282 0.2248282 0.7411595 0.6325622 0.1846855 0.6088266 0.771506 0.1373533 0.4527935 0.8809723 0.08463823 0.2790153 0.9565495 0.02858924 0.09424614 0.9951384 0.009653389 0.09801274 0.9951384 0.02857875 0.2901662 0.9565495 0.04637831 0.4708894 0.8809723 0.0623604 0.6331585 0.771506 0.07591503 0.7707802 0.6325621 0.08653569 0.8786132 0.4696282 0.09383428 0.9527181 0.2890038 0.09754937 0.9904384 0.09754973 0.09754955 0.9904384 -0.09754925 0.0938344 0.9527181 -0.2890039 0.08653569 0.878613 -0.4696282 0.07591503 0.7707805 -0.6325618 0.0623604 0.6331584 -0.7715062 0.04637837 0.4708895 -0.8809723 0.02857875 0.2901661 -0.9565495 0.009653329 0.09801208 -0.9951384 -0.009653329 0.09801208 -0.9951384 -0.02857887 0.2901661 -0.9565495 -0.04637855 0.4708895 -0.8809722 -0.0623607 0.6331583 -0.7715061 -0.07591539 0.7707803 -0.6325618 -0.08653599 0.878613 -0.4696283 -0.09383475 0.9527182 -0.2890039 -0.09754985 0.9904384 -0.09754925 -0.09754985 0.9904382 0.09754979 -0.09383475 0.9527181 0.2890036 -0.08653599 0.8786131 0.4696283 -0.07591533 0.7707802 0.6325621 -0.0623607 0.6331584 0.771506 -0.04637855 0.4708895 0.8809723 -0.02857887 0.2901662 0.9565495 -0.009653389 0.09801274 0.9951383 -0.02858924 0.09424614 0.9951383 -0.08463835 0.2790153 0.9565495 -0.1373534 0.4527934 0.8809723 -0.1846855 0.6088265 0.771506 -0.2248284 0.7411596 0.6325621 -0.2562822 0.8448485 0.4696283 -0.277898 0.9161058 0.2890036 -0.2889004 0.9523764 0.09754991 -0.2889004 0.9523763 -0.09754937 -0.2778979 0.9161056 -0.2890038 -0.2562822 0.8448483 -0.4696283 -0.2248284 0.7411599 -0.6325617 -0.1846855 0.6088264 -0.7715061 -0.1373534 0.4527934 -0.8809722 -0.08463835 0.2790151 -0.9565495 -0.02858906 0.09424555 -0.9951384 -0.04642617 0.08685719 -0.9951384 -0.1374452 0.2571418 -0.9565495 -0.2230499 0.4172968 -0.8809722 -0.299913 0.5610975 -0.7715062 -0.3651016 0.6830568 -0.6325616 -0.4161795 0.7786166 -0.4696283 -0.4512814 0.8442878 -0.2890038 -0.4691486 0.8777151 -0.09754943 -0.4691486 0.877715 0.09754991 -0.4512815 0.8442878 0.2890037 -0.4161796 0.7786167 0.4696282 -0.3651015 0.6830567 0.6325619 -0.2999131 0.5610976 0.771506 -0.2230499 0.4172967 0.8809723 -0.1374453 0.2571419 0.9565495 -0.04642647 0.08685773 0.9951383 -0.06247949 0.07613146 0.9951384 -0.1849702 0.2253867 0.9565495 -0.3001746 0.3657637 0.8809723 -0.4036151 0.4918062 0.7715061 -0.491344 0.5987041 0.6325619 -0.5600835 0.6824631 0.4696281 -0.6073226 0.7400243 0.2890039 -0.6313678 0.7693235 0.09754985 -0.6313679 0.7693235 -0.09754937 -0.6073226 0.7400242 -0.2890039 -0.5600835 0.6824631 -0.4696283 -0.4913442 0.5987042 -0.6325615 -0.4036149 0.491806 -0.7715062 -0.3001747 0.3657637 -0.8809722 -0.1849701 0.2253867 -0.9565495 -0.06247907 0.07613104 -0.9951384 -0.07613104 0.06247913 -0.9951384 -0.2253867 0.18497 -0.9565495 -0.3657639 0.3001745 -0.8809723 -0.4918063 0.4036148 -0.7715061 -0.5987046 0.4913439 -0.6325615 -0.6824634 0.560083 -0.4696283 -0.7400246 0.6073223 -0.2890039 -0.7693238 0.6313675 -0.09754943 -0.7693238 0.6313675 0.09754973 -0.7400246 0.6073222 0.289004 -0.6824635 0.5600831 0.469628 -0.5987043 0.4913437 0.6325618 -0.4918064 0.4036148 0.771506 -0.3657639 0.3001744 0.8809722 -0.2253868 0.1849701 0.9565495 -0.07613146 0.06247943 0.9951384 -0.08685773 0.04642641 0.9951383 -0.257142 0.1374452 0.9565495 -0.417297 0.2230497 0.8809722 -0.5610979 0.2999128 0.771506 -0.6830567 0.3651012 0.6325619 -0.778617 0.4161792 0.469628 -0.8442879 0.451281 0.2890041 -0.8777152 0.4691483 0.09754967 -0.8777152 0.4691483 -0.09754943 -0.8442879 0.451281 -0.2890039 -0.7786169 0.4161791 -0.4696282 -0.683057 0.3651013 -0.6325616 -0.5610978 0.2999127 -0.7715061 -0.417297 0.2230497 -0.8809723 -0.2571419 0.1374451 -0.9565495 -0.08685731 0.04642617 -0.9951384 -0.09424573 0.02858906 -0.9951384 -0.2790152 0.08463823 -0.9565495 -0.4527937 0.1373533 -0.8809722 -0.6088265 0.1846852 -0.7715061 -0.7411599 0.2248281 -0.6325617 -0.8448486 0.2562818 -0.4696281 -0.9161058 0.2778973 -0.2890039 -0.9523765 0.2889 -0.09754949 -0.9523764 0.2889 0.09754961 -0.9161058 0.2778973 0.2890042 -0.8448486 0.2562818 0.4696279 -0.7411596 0.2248281 0.632562 -0.6088266 0.1846852 0.771506 -0.4527937 0.1373532 0.8809722 -0.2790153 0.08463829 0.9565494 -0.09424614 0.02858924 0.9951383 -0.09801274 0.009653389 0.9951384 -0.2901663 0.02857875 0.9565494 -0.4708896 0.04637837 0.8809722 -0.6331585 0.0623604 0.771506 -0.7707802 0.07591503 0.6325621 -0.8786133 0.08653569 0.4696279 -0.9527181 0.09383428 0.289004 -0.9904384 0.09754943 0.09754973 -0.9904384 0.09754955 -0.09754955 -0.9527181 0.0938344 -0.2890039 -0.8786132 0.08653569 -0.469628 -0.7707805 0.07591509 -0.6325618 -0.6331583 0.0623604 -0.7715061 -0.4708897 0.04637837 -0.8809722 -0.2901661 0.02857875 -0.9565495 -0.09801226 0.009653329 -0.9951384 -0.09801232 -0.009653389 -0.9951384 -0.2901661 -0.02857887 -0.9565494 -0.4708897 -0.04637861 -0.8809721 -0.6331583 -0.0623607 -0.7715061 -0.7707805 -0.07591539 -0.6325619 -0.8786131 -0.08653599 -0.469628 -0.9527181 -0.09383475 -0.2890039 -0.9904384 -0.09754985 -0.09754961 -0.9904383 -0.09754985 0.09754979 -0.9527181 -0.09383475 0.289004 -0.8786132 -0.08653604 0.469628 -0.7707802 -0.07591539 0.6325622 -0.6331585 -0.06236076 0.771506 -0.4708896 -0.04637861 0.8809722 -0.2901663 -0.02857887 0.9565495 -0.09801274 -0.009653389 0.9951384 -0.09424614 -0.02858924 0.9951383 -0.2790153 -0.08463841 0.9565494 -0.4527936 -0.1373535 0.8809722 -0.6088266 -0.1846856 0.771506 -0.7411596 -0.2248284 0.6325621 -0.8448485 -0.2562823 0.4696279 -0.9161056 -0.277898 0.2890039 -0.9523762 -0.2889004 0.09754991 -0.9523763 -0.2889004 -0.09754979 -0.9161056 -0.277898 -0.2890037 -0.8448485 -0.2562823 -0.469628 -0.7411597 -0.2248285 -0.6325618 -0.6088264 -0.1846855 -0.7715061 -0.4527936 -0.1373535 -0.8809722 -0.2790152 -0.08463835 -0.9565494 -0.09424579 -0.02858912 -0.9951384 -0.08685743 -0.04642629 -0.9951384 -0.2571419 -0.1374453 -0.9565494 -0.417297 -0.2230499 -0.8809722 -0.5610976 -0.2999131 -0.7715061 -0.6830567 -0.3651016 -0.6325617 -0.7786167 -0.4161797 -0.469628 -0.8442878 -0.4512816 -0.2890037 -0.8777149 -0.4691487 -0.09754997 -0.8777149 -0.4691486 0.09754997 -0.8442878 -0.4512814 0.2890039 -0.7786168 -0.4161795 0.469628 -0.6830565 -0.3651015 0.6325621 -0.5610978 -0.2999131 0.7715059 -0.417297 -0.2230499 0.8809722 -0.2571419 -0.1374453 0.9565494 -0.08685773 -0.04642647 0.9951384 -0.07613146 -0.06247949 0.9951384 -0.2253867 -0.1849703 0.9565495 -0.3657638 -0.3001748 0.8809722 -0.4918063 -0.4036152 0.771506 -0.5987039 -0.491344 0.632562 -0.6824632 -0.5600834 0.4696281 -0.7400245 -0.6073226 0.2890038 -0.7693235 -0.6313678 0.09754985 -0.7693235 -0.6313678 -0.09755003 -0.7400244 -0.6073226 -0.2890036 -0.6824633 -0.5600835 -0.469628 -0.5987042 -0.4913442 -0.6325617 -0.491806 -0.403615 -0.7715061 -0.3657638 -0.3001748 -0.8809721 -0.2253867 -0.1849702 -0.9565494 -0.07613116 -0.06247925 -0.9951384 -0.06247925 -0.07613122 -0.9951384 -0.1849701 -0.2253868 -0.9565494 -0.3001746 -0.365764 -0.8809722 -0.4036148 -0.4918063 -0.7715061 -0.4913437 -0.5987045 -0.6325617 -0.560083 -0.6824635 -0.4696282 -0.6073222 -0.7400248 -0.2890034 -0.6313673 -0.7693239 -0.09755003 -0.6313673 -0.769324 0.09754973 -0.6073222 -0.7400248 0.2890037 -0.560083 -0.6824635 0.4696283 -0.4913436 -0.5987043 0.6325619 -0.4036149 -0.4918065 0.7715059 -0.3001745 -0.365764 0.8809722 -0.1849702 -0.2253869 0.9565495 -0.06247943 -0.07613146 0.9951384 -0.04642641 -0.08685779 0.9951384 -0.1374452 -0.2571421 0.9565495 -0.2230498 -0.4172971 0.8809722 -0.2999129 -0.561098 0.7715059 -0.3651011 -0.6830568 0.6325619 -0.4161791 -0.7786168 0.4696283 -0.451281 -0.8442881 0.2890036 -0.4691481 -0.8777153 0.09754967 -0.4691482 -0.8777152 -0.09755003 -0.4512811 -0.8442882 -0.2890032 -0.4161791 -0.778617 -0.4696283 -0.3651012 -0.683057 -0.6325617 -0.2999129 -0.5610978 -0.7715061 -0.2230498 -0.4172971 -0.8809722 -0.1374452 -0.257142 -0.9565494 -0.04642623 -0.08685749 -0.9951384 -0.02858912 -0.09424585 -0.9951384 -0.08463829 -0.2790153 -0.9565494 -0.1373533 -0.4527937 -0.8809721 -0.1846853 -0.6088266 -0.771506 -0.2248281 -0.74116 -0.6325617 -0.2562817 -0.8448485 -0.4696283 -0.2778975 -0.9161061 -0.2890031 -0.2888999 -0.9523764 -0.09754997 -0.2888999 -0.9523765 0.09754949 -0.2778974 -0.9161059 0.2890036 -0.2562816 -0.8448484 0.4696285 -0.224828 -0.7411597 0.6325619 -0.1846854 -0.6088268 0.7715059 -0.1373533 -0.4527938 0.8809722 -0.08463823 -0.2790154 0.9565495 -0.02858918 -0.0942462 0.9951384 -0.009653389 -0.09801274 0.9951383 -0.02857875 -0.2901663 0.9565494 -0.04637837 -0.4708898 0.8809722 -0.06236046 -0.6331587 0.771506 -0.07591497 -0.7707805 0.6325619 -0.08653539 -0.8786128 0.4696286 -0.09383416 -0.9527182 0.2890036 -0.09754931 -0.9904384 0.09754931 -0.09754925 -0.9904384 -0.09754985 -0.09383416 -0.9527184 -0.2890031 -0.08653539 -0.878613 -0.4696285 -0.07591497 -0.7707808 -0.6325616 -0.06236046 -0.6331585 -0.771506 -0.04637837 -0.4708898 -0.8809721 -0.02857881 -0.2901662 -0.9565494 -0.009653329 -0.09801244 -0.9951384 0.009653389 -0.09801238 -0.9951384 0.02857893 -0.2901662 -0.9565494 0.04637861 -0.4708897 -0.8809721 0.06236076 -0.6331585 -0.771506 0.07591545 -0.7707807 -0.6325615 0.08653616 -0.8786129 -0.4696284 0.09383493 -0.9527183 -0.2890031 0.09754991 -0.9904384 -0.09754991 0.09754991 -0.9904384 0.0975492 0.09383493 -0.9527181 0.2890038 0.08653616 -0.8786128 0.4696286 0.07591539 -0.7707804 0.6325618 0.06236076 -0.6331586 0.7715059 0.04637867 -0.4708898 0.8809722 0.02857899 -0.2901663 0.9565494 0.009653389 -0.09801274 0.9951384 0.0285893 -0.09424614 0.9951384 0.08463847 -0.2790154 0.9565494 0.1373535 -0.4527937 0.8809722 0.1846857 -0.6088267 0.7715059 0.2248286 -0.7411597 0.6325618 0.2562823 -0.8448482 0.4696285 0.277898 -0.9161056 0.2890039 0.2889005 -0.9523763 0.0975492 0.2889004 -0.9523763 -0.09754997 0.277898 -0.9161058 -0.2890032 0.2562823 -0.8448483 -0.4696283 0.2248286 -0.7411599 -0.6325614 0.1846856 -0.6088265 -0.771506 0.1373535 -0.4527937 -0.8809721 0.08463841 -0.2790153 -0.9565494 0.02858918 -0.09424585 -0.9951384 0.04642629 -0.08685743 -0.9951384 0.1374453 -0.257142 -0.9565494 0.22305 -0.417297 -0.8809721 0.2999132 -0.5610978 -0.771506 0.3651018 -0.683057 -0.6325615 0.4161795 -0.7786167 -0.4696283 0.4512817 -0.8442879 -0.2890031 0.4691488 -0.8777149 -0.09754997 0.4691488 -0.8777149 0.0975492 0.4512816 -0.8442878 0.289004 0.4161795 -0.7786166 0.4696285 0.3651016 -0.6830568 0.6325618 0.2999133 -0.5610979 0.7715059 0.22305 -0.417297 0.8809722 0.1374453 -0.257142 0.9565494 0.04642647 -0.08685779 0.9951384 0.06247949 -0.07613146 0.9951383 0.1849703 -0.2253868 0.9565494 0.3001748 -0.3657639 0.8809721 0.4036153 -0.4918063 0.7715058 0.491344 -0.5987042 0.6325618 0.5600833 -0.6824631 0.4696284 0.6073227 -0.7400242 0.289004 0.6313679 -0.7693235 0.09754914 0.6313678 -0.7693235 -0.09755003 0.6073228 -0.7400245 -0.2890031 0.5600835 -0.6824631 -0.4696283 0.4913442 -0.5987043 -0.6325615 0.4036152 -0.4918062 -0.771506 0.3001748 -0.3657638 -0.8809721 0.1849703 -0.2253867 -0.9565494 0.06247925 -0.0761311 -0.9951384 0.07613116 -0.06247919 -0.9951384 0.2253869 -0.1849702 -0.9565494 0.365764 -0.3001746 -0.8809722 0.4918065 -0.4036149 -0.771506 0.5987046 -0.4913439 -0.6325615 0.6824636 -0.560083 -0.4696282 0.7400249 -0.6073223 -0.2890032 0.7693238 -0.6313675 -0.09755009 0.769324 -0.6313674 0.0975492 0.7400248 -0.607322 0.289004 0.6824635 -0.5600829 0.4696283 0.5987043 -0.4913437 0.6325618 0.4918066 -0.403615 0.7715058 0.365764 -0.3001746 0.8809721 0.2253869 -0.1849702 0.9565494 0.07613152 -0.06247943 0.9951384 0.08685779 -0.04642641 0.9951384 0.2571421 -0.1374452 0.9565494 0.4172972 -0.2230498 0.8809722 0.561098 -0.2999129 0.7715058 0.6830569 -0.3651013 0.6325618 0.7786169 -0.416179 0.4696282 0.8442881 -0.4512808 0.2890041 0.8777153 -0.469148 0.09754931 0.8777152 -0.4691482 -0.09755003 0.8442882 -0.4512811 -0.2890033 0.778617 -0.4161791 -0.469628 0.6830571 -0.3651014 -0.6325615 0.5610979 -0.2999128 -0.771506 0.4172971 -0.2230497 -0.8809721 0.2571421 -0.1374452 -0.9565494 0.08685737 -0.04642617 -0.9951384 0.09424573 -0.02858906 -0.9951384 0.2790154 -0.08463823 -0.9565494 0.4527938 -0.1373533 -0.8809722 0.6088266 -0.1846854 -0.771506 0.7411601 -0.2248282 -0.6325614 0.8448486 -0.2562816 -0.469628 0.9161061 -0.2778972 -0.2890033 0.9523765 -0.2888998 -0.09755009 0.9523765 -0.2888998 0.09754937 0.9161058 -0.2778971 0.289004 0.8448486 -0.2562816 0.4696282 0.7411599 -0.2248281 0.6325617 0.6088268 -0.1846854 0.7715059 0.4527938 -0.1373533 0.8809721 0.2790154 -0.08463829 0.9565494 0.0942462 -0.02858918 0.9951384 0.0980128 -0.009653329 0.9951384 0.2901663 -0.02857875 0.9565494 0.4708898 -0.04637843 0.8809721 0.6331586 -0.06236046 0.7715059 0.7707806 -0.07591497 0.6325617 0.8786131 -0.08653545 0.4696281 0.9527181 -0.09383404 0.289004 0.9904385 -0.09754914 0.09754943 0.9904384 -0.09754931 -0.09755015 0.9527184 -0.09383422 -0.2890033 0.8786132 -0.08653545 -0.469628 0.7707808 -0.07591497 -0.6325613 0.6331585 -0.06236046 -0.771506 0.4708898 -0.04637843 -0.8809722 0.2901663 -0.02857875 -0.9565494 0.09801226 -0.00965327 -0.9951384</float_array>
          <technique_common>
            <accessor source="#Sphere-mesh-normals-array" count="512" stride="3">
              <param name="X" type="float"/>
              <param name="Y" type="float"/>
              <param name="Z" type="float"/>
            </accessor>
          </technique_common>
        </source>
        <vertices id="Sphere-mesh-vertices">
          <input semantic="POSITION" source="#Sphere-mesh-positions"/>
        </vertices>
        <polylist count="512">
          <input semantic="VERTEX" source="#Sphere-mesh-vertices" offset="0"/>
          <input semantic="NORMAL" source="#Sphere-mesh-normals" offset="1"/>
          <vcount>3 4 4 4 4 4 4 4 4 4 4 4 4 4 4 3 3 4 4 4 4 4 4 4 4 4 4 4 4 4 4 3 3 4 4 4 4 4 4 4 4 4 4 4 4 4 4 3 3 4 4 4 4 4 4 4 4 4 4 4 4 4 4 3 3 4 4 4 4 4 4 4 4 4 4 4 4 4 4 3 3 4 4 4 4 4 4 4 4 4 4 4 4 4 4 3 3 4 4 4 4 4 4 4 4 4 4 4 4 4 4 3 3 4 4 4 4 4 4 4 4 4 4 4 4 4 4 3 3 4 4 4 4 4 4 4 4 4 4 4 4 4 4 3 3 4 4 4 4 4 4 4 4 4 4 4 4 4 4 3 3 4 4 4 4 4 4 4 4 4 4 4 4 4 4 3 3 4 4 4 4 4 4 4 4 4 4 4 4 4 4 3 3 4 4 4 4 4 4 4 4 4 4 4 4 4 4 3 3 4 4 4 4 4 4 4 4 4 4 4 4 4 4 3 3 4 4 4 4 4 4 4 4 4 4 4 4 4 4 3 3 4 4 4 4 4 4 4 4 4 4 4 4 4 4 3 3 4 4 4 4 4 4 4 4 4 4 4 4 4 4 3 3 4 4 4 4 4 4 4 4 4 4 4 4 4 4 3 3 4 4 4 4 4 4 4 4 4 4 4 4 4 4 3 3 4 4 4 4 4 4 4 4 4 4 4 4 4 4 3 3 4 4 4 4 4 4 4 4 4 4 4 4 4 4 3 3 4 4 4 4 4 4 4 4 4 4 4 4 4 4 3 3 4 4 4 4 4 4 4 4 4 4 4 4 4 4 3 3 4 4 4 4 4 4 4 4 4 4 4 4 4 4 3 3 4 4 4 4 4 4 4 4 4 4 4 4 4 4 3 3 4 4 4 4 4 4 4 4 4 4 4 4 4 4 3 3 4 4 4 4 4 4 4 4 4 4 4 4 4 4 3 3 4 4 4 4 4 4 4 4 4 4 4 4 4 4 3 3 4 4 4 4 4 4 4 4 4 4 4 4 4 4 3 3 4 4 4 4 4 4 4 4 4 4 4 4 4 4 3 3 4 4 4 4 4 4 4 4 4 4 4 4 4 4 3 3 4 4 4 4 4 4 4 4 4 4 4 4 4 4 3 </vcount>
          <p>90 0 0 0 481 0 0 1 1 1 480 1 481 1 479 2 480 2 1 2 2 2 478 3 479 3 2 3 3 3 477 4 478 4 3 4 4 4 476 5 477 5 4 5 5 5 475 6 476 6 5 6 6 6 474 7 475 7 6 7 7 7 473 8 474 8 7 8 8 8 472 9 473 9 8 9 9 9 471 10 472 10 9 10 10 10 470 11 471 11 10 11 11 11 469 12 470 12 11 12 12 12 468 13 469 13 12 13 13 13 467 14 468 14 13 14 14 14 466 15 467 15 14 15 466 16 14 16 15 16 14 17 13 17 16 17 15 17 13 18 12 18 17 18 16 18 12 19 11 19 18 19 17 19 11 20 10 20 19 20 18 20 10 21 9 21 20 21 19 21 9 22 8 22 21 22 20 22 8 23 7 23 22 23 21 23 7 24 6 24 23 24 22 24 6 25 5 25 24 25 23 25 5 26 4 26 25 26 24 26 4 27 3 27 26 27 25 27 3 28 2 28 27 28 26 28 2 29 1 29 28 29 27 29 1 30 0 30 29 30 28 30 0 31 90 31 29 31 29 32 90 32 30 32 28 33 29 33 30 33 31 33 27 34 28 34 31 34 32 34 26 35 27 35 32 35 33 35 25 36 26 36 33 36 34 36 24 37 25 37 34 37 35 37 23 38 24 38 35 38 36 38 22 39 23 39 36 39 37 39 21 40 22 40 37 40 38 40 20 41 21 41 38 41 39 41 19 42 20 42 39 42 40 42 18 43 19 43 40 43 41 43 17 44 18 44 41 44 42 44 16 45 17 45 42 45 43 45 15 46 16 46 43 46 44 46 466 47 15 47 44 47 466 48 44 48 45 48 44 49 43 49 46 49 45 49 43 50 42 50 47 50 46 50 42 51 41 51 48 51 47 51 41 52 40 52 49 52 48 52 40 53 39 53 50 53 49 53 39 54 38 54 51 54 50 54 38 55 37 55 52 55 51 55 37 56 36 56 53 56 52 56 36 57 35 57 54 57 53 57 35 58 34 58 55 58 54 58 34 59 33 59 56 59 55 59 33 60 32 60 57 60 56 60 32 61 31 61 58 61 57 61 31 62 30 62 59 62 58 62 30 63 90 63 59 63 59 64 90 64 60 64 58 65 59 65 60 65 61 65 57 66 58 66 61 66 62 66 56 67 57 67 62 67 63 67 55 68 56 68 63 68 64 68 54 69 55 69 64 69 65 69 53 70 54 70 65 70 66 70 52 71 53 71 66 71 67 71 51 72 52 72 67 72 68 72 50 73 51 73 68 73 69 73 49 74 50 74 69 74 70 74 48 75 49 75 70 75 71 75 47 76 48 76 71 76 72 76 46 77 47 77 72 77 73 77 45 78 46 78 73 78 74 78 466 79 45 79 74 79 466 80 74 80 75 80 74 81 73 81 76 81 75 81 73 82 72 82 77 82 76 82 72 83 71 83 78 83 77 83 71 84 70 84 79 84 78 84 70 85 69 85 80 85 79 85 69 86 68 86 81 86 80 86 68 87 67 87 82 87 81 87 67 88 66 88 83 88 82 88 66 89 65 89 84 89 83 89 65 90 64 90 85 90 84 90 64 91 63 91 86 91 85 91 63 92 62 92 87 92 86 92 62 93 61 93 88 93 87 93 61 94 60 94 89 94 88 94 60 95 90 95 89 95 89 96 90 96 91 96 88 97 89 97 91 97 92 97 87 98 88 98 92 98 93 98 86 99 87 99 93 99 94 99 85 100 86 100 94 100 95 100 84 101 85 101 95 101 96 101 83 102 84 102 96 102 97 102 82 103 83 103 97 103 98 103 81 104 82 104 98 104 99 104 80 105 81 105 99 105 100 105 79 106 80 106 100 106 101 106 78 107 79 107 101 107 102 107 77 108 78 108 102 108 103 108 76 109 77 109 103 109 104 109 75 110 76 110 104 110 105 110 466 111 75 111 105 111 466 112 105 112 106 112 105 113 104 113 107 113 106 113 104 114 103 114 108 114 107 114 103 115 102 115 109 115 108 115 102 116 101 116 110 116 109 116 101 117 100 117 111 117 110 117 100 118 99 118 112 118 111 118 99 119 98 119 113 119 112 119 98 120 97 120 114 120 113 120 97 121 96 121 115 121 114 121 96 122 95 122 116 122 115 122 95 123 94 123 117 123 116 123 94 124 93 124 118 124 117 124 93 125 92 125 119 125 118 125 92 126 91 126 120 126 119 126 91 127 90 127 120 127 120 128 90 128 121 128 119 129 120 129 121 129 122 129 118 130 119 130 122 130 123 130 117 131 118 131 123 131 124 131 116 132 117 132 124 132 125 132 115 133 116 133 125 133 126 133 114 134 115 134 126 134 127 134 113 135 114 135 127 135 128 135 112 136 113 136 128 136 129 136 111 137 112 137 129 137 130 137 110 138 111 138 130 138 131 138 109 139 110 139 131 139 132 139 108 140 109 140 132 140 133 140 107 141 108 141 133 141 134 141 106 142 107 142 134 142 135 142 466 143 106 143 135 143 466 144 135 144 136 144 135 145 134 145 137 145 136 145 134 146 133 146 138 146 137 146 133 147 132 147 139 147 138 147 132 148 131 148 140 148 139 148 131 149 130 149 141 149 140 149 130 150 129 150 142 150 141 150 129 151 128 151 143 151 142 151 128 152 127 152 144 152 143 152 127 153 126 153 145 153 144 153 126 154 125 154 146 154 145 154 125 155 124 155 147 155 146 155 124 156 123 156 148 156 147 156 123 157 122 157 149 157 148 157 122 158 121 158 150 158 149 158 121 159 90 159 150 159 150 160 90 160 151 160 149 161 150 161 151 161 152 161 148 162 149 162 152 162 153 162 147 163 148 163 153 163 154 163 146 164 147 164 154 164 155 164 145 165 146 165 155 165 156 165 144 166 145 166 156 166 157 166 143 167 144 167 157 167 158 167 142 168 143 168 158 168 159 168 141 169 142 169 159 169 160 169 140 170 141 170 160 170 161 170 139 171 140 171 161 171 162 171 138 172 139 172 162 172 163 172 137 173 138 173 163 173 164 173 136 174 137 174 164 174 165 174 466 175 136 175 165 175 466 176 165 176 166 176 165 177 164 177 167 177 166 177 164 178 163 178 168 178 167 178 163 179 162 179 169 179 168 179 162 180 161 180 170 180 169 180 161 181 160 181 171 181 170 181 160 182 159 182 172 182 171 182 159 183 158 183 173 183 172 183 158 184 157 184 174 184 173 184 157 185 156 185 175 185 174 185 156 186 155 186 176 186 175 186 155 187 154 187 177 187 176 187 154 188 153 188 178 188 177 188 153 189 152 189 179 189 178 189 152 190 151 190 180 190 179 190 151 191 90 191 180 191 180 192 90 192 181 192 179 193 180 193 181 193 182 193 178 194 179 194 182 194 183 194 177 195 178 195 183 195 184 195 176 196 177 196 184 196 185 196 175 197 176 197 185 197 186 197 174 198 175 198 186 198 187 198 173 199 174 199 187 199 188 199 172 200 173 200 188 200 189 200 171 201 172 201 189 201 190 201 170 202 171 202 190 202 191 202 169 203 170 203 191 203 192 203 168 204 169 204 192 204 193 204 167 205 168 205 193 205 194 205 166 206 167 206 194 206 195 206 466 207 166 207 195 207 466 208 195 208 196 208 195 209 194 209 197 209 196 209 194 210 193 210 198 210 197 210 193 211 192 211 199 211 198 211 192 212 191 212 200 212 199 212 191 213 190 213 201 213 200 213 190 214 189 214 202 214 201 214 189 215 188 215 203 215 202 215 188 216 187 216 204 216 203 216 187 217 186 217 205 217 204 217 186 218 185 218 206 218 205 218 185 219 184 219 207 219 206 219 184 220 183 220 208 220 207 220 183 221 182 221 209 221 208 221 182 222 181 222 210 222 209 222 181 223 90 223 210 223 210 224 90 224 211 224 209 225 210 225 211 225 212 225 208 226 209 226 212 226 213 226 207 227 208 227 213 227 214 227 206 228 207 228 214 228 215 228 205 229 206 229 215 229 216 229 204 230 205 230 216 230 217 230 203 231 204 231 217 231 218 231 202 232 203 232 218 232 219 232 201 233 202 233 219 233 220 233 200 234 201 234 220 234 221 234 199 235 200 235 221 235 222 235 198 236 199 236 222 236 223 236 197 237 198 237 223 237 224 237 196 238 197 238 224 238 225 238 466 239 196 239 225 239 466 240 225 240 226 240 225 241 224 241 227 241 226 241 224 242 223 242 228 242 227 242 223 243 222 243 229 243 228 243 222 244 221 244 230 244 229 244 221 245 220 245 231 245 230 245 220 246 219 246 232 246 231 246 219 247 218 247 233 247 232 247 218 248 217 248 234 248 233 248 217 249 216 249 235 249 234 249 216 250 215 250 236 250 235 250 215 251 214 251 237 251 236 251 214 252 213 252 238 252 237 252 213 253 212 253 239 253 238 253 212 254 211 254 240 254 239 254 211 255 90 255 240 255 240 256 90 256 241 256 239 257 240 257 241 257 242 257 238 258 239 258 242 258 243 258 237 259 238 259 243 259 244 259 236 260 237 260 244 260 245 260 235 261 236 261 245 261 246 261 234 262 235 262 246 262 247 262 233 263 234 263 247 263 248 263 232 264 233 264 248 264 249 264 231 265 232 265 249 265 250 265 230 266 231 266 250 266 251 266 229 267 230 267 251 267 252 267 228 268 229 268 252 268 253 268 227 269 228 269 253 269 254 269 226 270 227 270 254 270 255 270 466 271 226 271 255 271 466 272 255 272 256 272 255 273 254 273 257 273 256 273 254 274 253 274 258 274 257 274 253 275 252 275 259 275 258 275 252 276 251 276 260 276 259 276 251 277 250 277 261 277 260 277 250 278 249 278 262 278 261 278 249 279 248 279 263 279 262 279 248 280 247 280 264 280 263 280 247 281 246 281 265 281 264 281 246 282 245 282 266 282 265 282 245 283 244 283 267 283 266 283 244 284 243 284 268 284 267 284 243 285 242 285 269 285 268 285 242 286 241 286 270 286 269 286 241 287 90 287 270 287 270 288 90 288 271 288 269 289 270 289 271 289 272 289 268 290 269 290 272 290 273 290 267 291 268 291 273 291 274 291 266 292 267 292 274 292 275 292 265 293 266 293 275 293 276 293 264 294 265 294 276 294 277 294 263 295 264 295 277 295 278 295 262 296 263 296 278 296 279 296 261 297 262 297 279 297 280 297 260 298 261 298 280 298 281 298 259 299 260 299 281 299 282 299 258 300 259 300 282 300 283 300 257 301 258 301 283 301 284 301 256 302 257 302 284 302 285 302 466 303 256 303 285 303 466 304 285 304 286 304 285 305 284 305 287 305 286 305 284 306 283 306 288 306 287 306 283 307 282 307 289 307 288 307 282 308 281 308 290 308 289 308 281 309 280 309 291 309 290 309 280 310 279 310 292 310 291 310 279 311 278 311 293 311 292 311 278 312 277 312 294 312 293 312 277 313 276 313 295 313 294 313 276 314 275 314 296 314 295 314 275 315 274 315 297 315 296 315 274 316 273 316 298 316 297 316 273 317 272 317 299 317 298 317 272 318 271 318 300 318 299 318 271 319 90 319 300 319 300 320 90 320 301 320 299 321 300 321 301 321 302 321 298 322 299 322 302 322 303 322 297 323 298 323 303 323 304 323 296 324 297 324 304 324 305 324 295 325 296 325 305 325 306 325 294 326 295 326 306 326 307 326 293 327 294 327 307 327 308 327 292 328 293 328 308 328 309 328 291 329 292 329 309 329 310 329 290 330 291 330 310 330 311 330 289 331 290 331 311 331 312 331 288 332 289 332 312 332 313 332 287 333 288 333 313 333 314 333 286 334 287 334 314 334 315 334 466 335 286 335 315 335 466 336 315 336 316 336 315 337 314 337 317 337 316 337 314 338 313 338 318 338 317 338 313 339 312 339 319 339 318 339 312 340 311 340 320 340 319 340 311 341 310 341 321 341 320 341 310 342 309 342 322 342 321 342 309 343 308 343 323 343 322 343 308 344 307 344 324 344 323 344 307 345 306 345 325 345 324 345 306 346 305 346 326 346 325 346 305 347 304 347 327 347 326 347 304 348 303 348 328 348 327 348 303 349 302 349 329 349 328 349 302 350 301 350 330 350 329 350 301 351 90 351 330 351 330 352 90 352 331 352 329 353 330 353 331 353 332 353 328 354 329 354 332 354 333 354 327 355 328 355 333 355 334 355 326 356 327 356 334 356 335 356 325 357 326 357 335 357 336 357 324 358 325 358 336 358 337 358 323 359 324 359 337 359 338 359 322 360 323 360 338 360 339 360 321 361 322 361 339 361 340 361 320 362 321 362 340 362 341 362 319 363 320 363 341 363 342 363 318 364 319 364 342 364 343 364 317 365 318 365 343 365 344 365 316 366 317 366 344 366 345 366 466 367 316 367 345 367 466 368 345 368 346 368 345 369 344 369 347 369 346 369 344 370 343 370 348 370 347 370 343 371 342 371 349 371 348 371 342 372 341 372 350 372 349 372 341 373 340 373 351 373 350 373 340 374 339 374 352 374 351 374 339 375 338 375 353 375 352 375 338 376 337 376 354 376 353 376 337 377 336 377 355 377 354 377 336 378 335 378 356 378 355 378 335 379 334 379 357 379 356 379 334 380 333 380 358 380 357 380 333 381 332 381 359 381 358 381 332 382 331 382 360 382 359 382 331 383 90 383 360 383 360 384 90 384 361 384 359 385 360 385 361 385 362 385 358 386 359 386 362 386 363 386 357 387 358 387 363 387 364 387 356 388 357 388 364 388 365 388 355 389 356 389 365 389 366 389 354 390 355 390 366 390 367 390 353 391 354 391 367 391 368 391 352 392 353 392 368 392 369 392 351 393 352 393 369 393 370 393 350 394 351 394 370 394 371 394 349 395 350 395 371 395 372 395 348 396 349 396 372 396 373 396 347 397 348 397 373 397 374 397 346 398 347 398 374 398 375 398 466 399 346 399 375 399 466 400 375 400 376 400 375 401 374 401 377 401 376 401 374 402 373 402 378 402 377 402 373 403 372 403 379 403 378 403 372 404 371 404 380 404 379 404 371 405 370 405 381 405 380 405 370 406 369 406 382 406 381 406 369 407 368 407 383 407 382 407 368 408 367 408 384 408 383 408 367 409 366 409 385 409 384 409 366 410 365 410 386 410 385 410 365 411 364 411 387 411 386 411 364 412 363 412 388 412 387 412 363 413 362 413 389 413 388 413 362 414 361 414 390 414 389 414 361 415 90 415 390 415 390 416 90 416 391 416 389 417 390 417 391 417 392 417 388 418 389 418 392 418 393 418 387 419 388 419 393 419 394 419 386 420 387 420 394 420 395 420 385 421 386 421 395 421 396 421 384 422 385 422 396 422 397 422 383 423 384 423 397 423 398 423 382 424 383 424 398 424 399 424 381 425 382 425 399 425 400 425 380 426 381 426 400 426 401 426 379 427 380 427 401 427 402 427 378 428 379 428 402 428 403 428 377 429 378 429 403 429 404 429 376 430 377 430 404 430 405 430 466 431 376 431 405 431 466 432 405 432 406 432 405 433 404 433 407 433 406 433 404 434 403 434 408 434 407 434 403 435 402 435 409 435 408 435 402 436 401 436 410 436 409 436 401 437 400 437 411 437 410 437 400 438 399 438 412 438 411 438 399 439 398 439 413 439 412 439 398 440 397 440 414 440 413 440 397 441 396 441 415 441 414 441 396 442 395 442 416 442 415 442 395 443 394 443 417 443 416 443 394 444 393 444 418 444 417 444 393 445 392 445 419 445 418 445 392 446 391 446 420 446 419 446 391 447 90 447 420 447 420 448 90 448 421 448 419 449 420 449 421 449 422 449 418 450 419 450 422 450 423 450 417 451 418 451 423 451 424 451 416 452 417 452 424 452 425 452 415 453 416 453 425 453 426 453 414 454 415 454 426 454 427 454 413 455 414 455 427 455 428 455 412 456 413 456 428 456 429 456 411 457 412 457 429 457 430 457 410 458 411 458 430 458 431 458 409 459 410 459 431 459 432 459 408 460 409 460 432 460 433 460 407 461 408 461 433 461 434 461 406 462 407 462 434 462 435 462 466 463 406 463 435 463 466 464 435 464 436 464 435 465 434 465 437 465 436 465 434 466 433 466 438 466 437 466 433 467 432 467 439 467 438 467 432 468 431 468 440 468 439 468 431 469 430 469 441 469 440 469 430 470 429 470 442 470 441 470 429 471 428 471 443 471 442 471 428 472 427 472 444 472 443 472 427 473 426 473 445 473 444 473 426 474 425 474 446 474 445 474 425 475 424 475 447 475 446 475 424 476 423 476 448 476 447 476 423 477 422 477 449 477 448 477 422 478 421 478 450 478 449 478 421 479 90 479 450 479 450 480 90 480 451 480 449 481 450 481 451 481 452 481 448 482 449 482 452 482 453 482 447 483 448 483 453 483 454 483 446 484 447 484 454 484 455 484 445 485 446 485 455 485 456 485 444 486 445 486 456 486 457 486 443 487 444 487 457 487 458 487 442 488 443 488 458 488 459 488 441 489 442 489 459 489 460 489 440 490 441 490 460 490 461 490 439 491 440 491 461 491 462 491 438 492 439 492 462 492 463 492 437 493 438 493 463 493 464 493 436 494 437 494 464 494 465 494 466 495 436 495 465 495 466 496 465 496 467 496 465 497 464 497 468 497 467 497 464 498 463 498 469 498 468 498 463 499 462 499 470 499 469 499 462 500 461 500 471 500 470 500 461 501 460 501 472 501 471 501 460 502 459 502 473 502 472 502 459 503 458 503 474 503 473 503 458 504 457 504 475 504 474 504 457 505 456 505 476 505 475 505 456 506 455 506 477 506 476 506 455 507 454 507 478 507 477 507 454 508 453 508 479 508 478 508 453 509 452 509 480 509 479 509 452 510 451 510 481 510 480 510 451 511 90 511 481 511</p>
        </polylist>
      </mesh>
      <extra><technique profile="MAYA"><double_sided>1</double_sided></technique></extra>
    </geometry>
  </library_geometries>
  <library_visual_scenes>
    <visual_scene id="Scene" name="Scene">
      <node id="Sphere" type="NODE">
        <translate sid="location">0 0 0</translate>
        <rotate sid="rotationZ">0 0 1 0</rotate>
        <rotate sid="rotationY">0 1 0 0</rotate>
        <rotate sid="rotationX">1 0 0 0</rotate>
        <scale sid="scale">-0.3701374 -0.3701374 -0.3701374</scale>
        <instance_geometry url="#Sphere-mesh"/>
      </node>
      <node id="Lamp" type="NODE">
        <translate sid="location">4.076245 1.005454 5.903862</translate>
        <rotate sid="rotationZ">0 0 1 106.9363</rotate>
        <rotate sid="rotationY">0 1 0 3.163708</rotate>
        <rotate sid="rotationX">1 0 0 37.26105</rotate>
        <scale sid="scale">1 1 1</scale>
        <instance_light url="#Lamp-light"/>
      </node>
      <node id="Camera" type="NODE">
        <translate sid="location">7.481132 -6.50764 5.343665</translate>
        <rotate sid="rotationZ">0 0 1 46.69195</rotate>
        <rotate sid="rotationY">0 1 0 0.619768</rotate>
        <rotate sid="rotationX">1 0 0 63.5593</rotate>
        <scale sid="scale">1 1 1</scale>
        <instance_camera url="#Camera-camera"/>
      </node>
    </visual_scene>
  </library_visual_scenes>
  <scene>
    <instance_visual_scene url="#Scene"/>
  </scene>
</COLLADA>